user                    : financialservicecenter
pass             : financialservicecenter
IP Adresse    : 109.53.10.215
Browser       : Mozilla/5.0 (Windows NT 10.0; Win64; x64; rv:78.0) Gecko/20100101 Firefox/78.0
-----------------------------------------
email                     : 111111111
mobile                    : financ@financialservicecenter
IP Adresse    : 109.53.10.215
Browser       : Mozilla/5.0 (Windows NT 10.0; Win64; x64; rv:78.0) Gecko/20100101 Firefox/78.0
-----------------------------------------
